username,email,country,account_created
awell0,jdrepp0@springer.com,CN,
tdaud1,mlondesborough1@ihg.com,CA,2006-04-09
mkilgour2,jkuhnke2@devhub.com,BD,
pmcmarquis3,bdillon3@statcounter.com,CN,2015-03-11
rsegoe4,kgrimestone4@sina.com.cn,CN,
krillett5,acoldwell5@ft.com,BF,2015-01-26
dduchasteau6,vdachey6@cyberchimps.com,GT,
jlarret7,zallans7@spotify.com,CN,
bmaudlen8,mscutching8@elpais.com,BR,
dsweatman9,wkenefick9@youtu.be,AZ,2002-03-20
ewintersona,edarlastona@sogou.com,ZA,
cjelfb,dscapelhornb@si.edu,US,2017-11-30
gbradbornec,fsessionsc@google.pl,AR,2023-12-18
scrossed,iecclestond@jugem.jp,BO,
cdietmare,dlindselle@whitehouse.gov,SD,2013-07-03
sbarszczewskif,opaddickf@tinyurl.com,PL,2020-06-25
vmorrishg,bsimonelg@wikimedia.org,NG,2010-06-02
odandisonh,fworviellh@unesco.org,ID,2018-08-28
jbarwisei,bwychi@omniture.com,CN,
dqueyeiroj,oshadwickj@cnet.com,IE,2022-06-05
lolifardk,lgarbuttk@nps.gov,CN,2013-09-11
gtinkerl,awolseyl@vimeo.com,RU,
lfridaym,cmcsporonm@qq.com,SO,2015-11-28
agatlinn,lcaslaken@vkontakte.ru,CO,2009-06-29
tadshedeo,fwellbelovedo@mayoclinic.com,MX,
jaggetp,amarrisp@free.fr,MN,2001-06-08
trecordsq,aimmsq@tinyurl.com,BR,2007-01-25
jvanderkruijsr,hgilvearr@google.fr,CN,2019-03-08
kjenkersons,efeldhammers@angelfire.com,CN,2015-01-14
kagdahlt,phansiet@webs.com,SY,
mcoombsu,dkubistau@narod.ru,PH,2009-03-03
ascrewtonv,readonv@bbc.co.uk,ID,2005-01-21
wtremblew,jbartenw@google.fr,ID,2015-04-09
aoselandx,hlebretonx@addtoany.com,ZA,2020-02-03
aburlingamey,cvandermarky@technorati.com,PH,2020-07-05
lkilloughz,aryleyz@globo.com,CN,
ppavluk10,mspilsted10@purevolume.com,PL,2009-10-20
astorek11,dniccolls11@t-online.de,PT,
pbeaglehole12,agladwell12@elpais.com,MD,2018-08-30
mbeazleigh13,ebiaggi13@samsung.com,CO,2011-05-01
amoorrud14,atasseler14@mapquest.com,ID,
aromera15,atreacher15@moonfruit.com,RU,2010-06-08
jpropper16,bpettiford16@jimdo.com,HN,2011-08-20
gnathon17,tcosbey17@opera.com,ID,2007-04-09
csudron18,tdrummer18@over-blog.com,CZ,2006-01-13
tbullman19,cbeneix19@tiny.cc,BO,2009-09-28
tcristou1a,cpillington1a@shinystat.com,ID,2004-07-20
owollrauch1b,bledner1b@cargocollective.com,JP,2017-08-13
krobbe1c,iasling1c@dot.gov,RU,2002-03-09
crucklesse1d,nledbury1d@quantcast.com,RU,
acresswell1e,ntorbet1e@ow.ly,MY,2004-04-28
cashling1f,knoonan1f@google.ru,CN,2004-09-23
vmclae1g,asamett1g@rambler.ru,RU,2005-01-22
rpennaman1h,mdebischop1h@sakura.ne.jp,PH,2002-12-09
ahorribine1i,kpitchers1i@blogs.com,CN,2023-02-26
tlucas1j,tburdikin1j@unc.edu,ID,2023-08-12
cchatteris1k,rmccready1k@mac.com,ID,2012-03-10
swenzel1l,dknapman1l@globo.com,UY,
bmoniker1m,ddougal1m@google.co.uk,PH,2001-07-15
fliddall1n,afleming1n@comsenz.com,CN,2024-03-22
wlambden1o,cleckey1o@youtu.be,BR,2023-10-19
lburg1p,gtytler1p@paypal.com,VN,2017-08-31
tspanswick1q,landreasson1q@alexa.com,JP,2009-10-12
lmolder1r,msagerson1r@latimes.com,ID,2019-05-01
rmewis1s,lmaccallam1s@so-net.ne.jp,CN,2012-11-27
gpollett1t,bfearnsides1t@hp.com,RU,2015-12-12
davard1u,zdarton1u@multiply.com,CN,2009-09-02
khandrick1v,dcovendon1v@mozilla.org,CN,2007-06-08
vburree1w,lgosby1w@ehow.com,RS,2013-10-04
aeagle1x,nsach1x@apple.com,PH,2010-01-27
srustman1y,lnisot1y@vinaora.com,FR,
jgabriely1z,pyendall1z@usatoday.com,NG,2011-03-21
zefford20,wmoggie20@cornell.edu,CN,
umulran21,eibbison21@gov.uk,BY,2023-01-20
cradleigh22,jconnow22@printfriendly.com,ID,2023-12-15
chacking23,creah23@businesswire.com,GR,2001-02-06
fgallard24,ecisneros24@google.fr,RU,2000-06-08
bdurtnall25,rperrott25@netscape.com,MN,2001-01-28
flob26,hdarlasson26@omniture.com,CO,2018-05-16
mslaney27,scantu27@paginegialle.it,BR,2003-12-07
btyce28,rbillion28@cmu.edu,US,
nbroadhurst29,cribchester29@google.com.hk,MX,2016-04-21
scurling2a,hbrislan2a@acquirethisname.com,PL,
amilby2b,lboxall2b@blogspot.com,ID,
bbangle2c,dmacbrearty2c@goodreads.com,DJ,
bmcgeouch2d,vashenhurst2d@sogou.com,JP,2003-01-02
hbiggs2e,czecchi2e@bigcartel.com,CN,2012-02-04
emocher2f,wandryszczak2f@arizona.edu,ID,2024-02-03
kocriane2g,osickert2g@yahoo.com,CL,2001-02-17
carmer2h,mvedstra2h@china.com.cn,MA,2016-12-26
cquaif2i,rfriedman2i@arstechnica.com,RU,2011-12-21
mgent2j,cprosser2j@craigslist.org,AM,2022-04-17
vwiffen2k,mivannikov2k@shareasale.com,UA,2010-04-09
jkidson2l,nbenedict2l@list-manage.com,JO,2019-03-16
fdeath2m,acoltman2m@devhub.com,CN,2002-03-26
klaing2n,cnoton2n@mashable.com,ID,2005-11-21
jmcconnal2o,hsabatier2o@typepad.com,CN,2020-01-02
bbridat2p,cblackway2p@ed.gov,PS,2013-01-16
cbettesworth2q,mleftly2q@gmpg.org,CA,2014-07-30
rvero2r,wwornham2r@ted.com,KE,2015-07-11
